%TF.GenerationSoftware,KiCad,Pcbnew,(6.0.5)*%
%TF.CreationDate,2022-06-14T15:09:51+02:00*%
%TF.ProjectId,HP4670_Adapter,48503436-3730-45f4-9164-61707465722e,rev?*%
%TF.SameCoordinates,Original*%
%TF.FileFunction,Paste,Top*%
%TF.FilePolarity,Positive*%
%FSLAX46Y46*%
G04 Gerber Fmt 4.6, Leading zero omitted, Abs format (unit mm)*
G04 Created by KiCad (PCBNEW (6.0.5)) date 2022-06-14 15:09:51*
%MOMM*%
%LPD*%
G01*
G04 APERTURE LIST*
%ADD10R,1.524000X6.000000*%
G04 APERTURE END LIST*
D10*
%TO.C,U1*%
X160830000Y-94806000D03*
X144330000Y-94806000D03*
%TD*%
M02*
