%TF.GenerationSoftware,KiCad,Pcbnew,(6.0.5)*%
%TF.CreationDate,2022-06-14T15:09:51+02:00*%
%TF.ProjectId,HP4670_Adapter,48503436-3730-45f4-9164-61707465722e,rev?*%
%TF.SameCoordinates,Original*%
%TF.FileFunction,Soldermask,Top*%
%TF.FilePolarity,Negative*%
%FSLAX46Y46*%
G04 Gerber Fmt 4.6, Leading zero omitted, Abs format (unit mm)*
G04 Created by KiCad (PCBNEW (6.0.5)) date 2022-06-14 15:09:51*
%MOMM*%
%LPD*%
G01*
G04 APERTURE LIST*
G04 Aperture macros list*
%AMRoundRect*
0 Rectangle with rounded corners*
0 $1 Rounding radius*
0 $2 $3 $4 $5 $6 $7 $8 $9 X,Y pos of 4 corners*
0 Add a 4 corners polygon primitive as box body*
4,1,4,$2,$3,$4,$5,$6,$7,$8,$9,$2,$3,0*
0 Add four circle primitives for the rounded corners*
1,1,$1+$1,$2,$3*
1,1,$1+$1,$4,$5*
1,1,$1+$1,$6,$7*
1,1,$1+$1,$8,$9*
0 Add four rect primitives between the rounded corners*
20,1,$1+$1,$2,$3,$4,$5,0*
20,1,$1+$1,$4,$5,$6,$7,0*
20,1,$1+$1,$6,$7,$8,$9,0*
20,1,$1+$1,$8,$9,$2,$3,0*%
%AMRotRect*
0 Rectangle, with rotation*
0 The origin of the aperture is its center*
0 $1 length*
0 $2 width*
0 $3 Rotation angle, in degrees counterclockwise*
0 Add horizontal line*
21,1,$1,$2,0,0,$3*%
G04 Aperture macros list end*
%ADD10C,1.524000*%
%ADD11R,1.524000X6.000000*%
%ADD12RotRect,3.500000X3.500000X83.000000*%
%ADD13RoundRect,0.750000X0.901144X-0.866279X1.083948X0.622540X-0.901144X0.866279X-1.083948X-0.622540X0*%
%ADD14RoundRect,0.875000X0.761842X-0.975114X0.975114X0.761842X-0.761842X0.975114X-0.975114X-0.761842X0*%
%ADD15R,1.600000X1.600000*%
%ADD16C,1.600000*%
%ADD17C,4.000000*%
G04 APERTURE END LIST*
D10*
%TO.C,U1*%
X155950000Y-106606000D03*
X155950000Y-103706000D03*
X153710000Y-103706000D03*
X151450000Y-103706000D03*
X149210000Y-103706000D03*
X149210000Y-106606000D03*
D11*
X160830000Y-94806000D03*
X144330000Y-94806000D03*
%TD*%
D12*
%TO.C,J1*%
X140000000Y-113408569D03*
D13*
X139268784Y-119363846D03*
D14*
X144299359Y-116958993D03*
%TD*%
D15*
%TO.C,J2*%
X157260000Y-112332500D03*
D16*
X154760000Y-112332500D03*
X154760000Y-114332500D03*
X157260000Y-114332500D03*
D17*
X150010000Y-117192500D03*
X162010000Y-117192500D03*
%TD*%
M02*
