M48
; DRILL file {KiCad (6.0.5)} date Di 14 Jun 2022 15:06:22 CEST
; FORMAT={-:-/ absolute / inch / decimal}
; #@! TF.CreationDate,2022-06-14T15:06:22+02:00
; #@! TF.GenerationSoftware,Kicad,Pcbnew,(6.0.5)
; #@! TF.FileFunction,Plated,1,2,PTH
FMAT,2
INCH
; #@! TA.AperFunction,Plated,PTH,ComponentDrill
T1C0.0354
; #@! TA.AperFunction,Plated,PTH,ComponentDrill
T2C0.0374
; #@! TA.AperFunction,Plated,PTH,ComponentDrill
T3C0.0394
; #@! TA.AperFunction,Plated,PTH,ComponentDrill
T4C0.0906
%
G90
G05
T1
X5.8744Y-4.0829
X5.8744Y-4.1971
X5.9626Y-4.0829
X6.0516Y-4.0829
X6.1398Y-4.0829
X6.1398Y-4.1971
T2
X6.0929Y-4.4225
X6.0929Y-4.5013
X6.1913Y-4.4225
X6.1913Y-4.5013
T4
X5.9059Y-4.6139
X6.3783Y-4.6139
T3
G00X5.4439Y-4.6946
M15
G01X5.5221Y-4.7042
M16
G05
G00X5.4727Y-4.4601
M15
G01X5.5509Y-4.4697
M16
G05
G00X5.6763Y-4.6438
M15
G01X5.6859Y-4.5656
M16
G05
T0
M30
